assign_1_esm_244_ satie_airame
…
ramu_2_unite <- ramu_2 %>% 
  unite("lake_id_3", lake_id_2, lake_id, sep = "")

ramu_2_count <- ramu_2_unite %>% 
  group_by(lake_id_3) %>% 
  summarize(total_frogs_2 = sum(amphibian_number, na.rm = TRUE))

## `summarise()` ungrouping output (override with `.groups` argument)

ramu_2_count

## # A tibble: 863 x 2
##    lake_id_3  total_frogs_2
##    <chr>              <dbl>
##  1 Lake 10008             1
##  2 Lake 10011            17
##  3 Lake 10030             1
##  4 Lake 10032            12
##  5 Lake 10037            19
##  6 Lake 10055           223
##  7 Lake 10064            12
##  8 Lake 10069            41
##  9 Lake 10081            56
## 10 Lake 10090           286
## #  with 853 more rows
…
